<?php
/*
 * File: create
 * Category: view
 * Author: OS
 * Created: 24.09.14 12:34
 * Updated: -
 *
 * Description:
 *  -
 */

?>

<div class="row">
    <div class="col-lg-12">
        <a href="<?=PAGE_ROOT?>question/view/<?=$this->response->id?>/">Zurück</a>
    </div>
</div>

<div class="row">
    <div class="col-lg-12">
        <h1 class="page-header">Antwort erstellen</h1>
    </div>
</div>
<div class="row">
    <div class="col-lg-6">
        <b>Frage:</b><br />
        <?=$this->response->question?>
    </div>
    <div class="col-lg-6">
        <form method="POST" target="_self" class="">
            <input type="hidden" name="id" value="<?=$this->response->id?>"/>
            <div class="form-group">
                <label class="control-label" for="answer">Antwort</label>
                <textarea class="form-control" id="answer" name="answer"><?=(!empty($this->app->data['post']['answer'])?$this->app->data['post']['answer']:'')?></textarea>
            </div>
            <div class="form-group">
                <input class="" id="kind1" type="radio" name="kind" value="0" checked="<?=($this->app->data['post']['kind'] == 0 ? 'checked' :'')?>" />
                <label class="control-label" for="kind1">Falsch</label>
                <input class="" id="kind2" type="radio" name="kind" value="1" checked="<?=($this->app->data['post']['kind'] == 1 ? 'checked' :'')?>" />
                <label class="control-label" for="kind2">Richtig</label>
            </div>
            <div class="form-group">
                <div class="col-lg-10 col-lg-offset-3">
                    <button type="submit" class="btn btn-primary pull-right" name="antwort" style="margin-right: 15px;">Erstellen</button>
                </div>
            </div>
        </form>
    </div>
</div>
