<?php
/*
 * File: create.stp
 * Category: View
 * Author: MSG
 * Created: 24.09.14 16:31
 * Updated: -
 *
 * Description:
 *  -
 */

?>

<div class="row">
    <div class="col-lg-12">
        <a href="<?=PAGE_ROOT?>category/view/<?=$this->app->data['get']['id']?>/">Zurück</a>
    </div>
</div>

<div class="row">
    <div class="col-lg-12">
        <h1 class="page-header">Kategorie bearbeiten</h1>
    </div>
</div>
<div class="row">
    <div class="col-lg-4">
        <p>
            Oberkategorien sind sog. Oberkategorien...
        </p>
    </div>
    <div class="col-lg-8">
        <form method="POST" target="_self" class="">
            <input type="hidden" name="id" value="<?=$this->response->id?>" />
            <div class="form-group">
                <label class="control-label" for="name">Kategoriename</label>
                <input class="form-control" id="name" type="text" placeholder="Kategoriename" name="name" value="<?=$this->response->name?>" />
            </div>
            <div class="form-group">
                <label class="control-label" for="description">Kategorienbeschreibung</label>
                <textarea name="description"  class="form-control"  ><?=$this->response->description?></textarea>
            </div>
            <div class="form-group">
                <div class="col-lg-10 col-lg-offset-3">
                    <button type="submit" class="btn btn-primary pull-right" style="margin-right: 15px;">Speichern</button>
                    <a class="btn btn-danger pull-right btn-space" href="<?=PAGE_ROOT?>category/delete/<?=$this->response->id?>/">Löschen</a>
                </div>
            </div>
        </form>
    </div>
</div>
