<?php
/*
 * File: view.stp
 * Category: View
 * Author: OS
 * Created: 24.09.14 16:31
 * Updated: -
 *
 * Description:
 *  -
 */

//var_dump($this->response->Extensions['Question']);
?>


<div class="row">
    <div class="col-lg-12">
        <a href="<?=PAGE_ROOT?>category/view/<?=$this->response->category_id?>/">Zurück</a>
    </div>
</div>


<div class="row">
    <div class="col-lg-12">
        <h1 class="page-header">Fragen Übersicht</h1>
    </div>
</div>

<?php
foreach ($this->response->Extensions['Question'] as $question){
    //var_dump($question);
    ?>
    <div class="row">
        <div class="col-lg-5"><a href="<?=PAGE_ROOT?>question/view/<?=$question->id?>/"><?=$question->question?></a></div>
        <div class="col-lg-5"><?=$question->hint?></div>
        <div class="col-lg-2"><?= date('d.m.Y H:i', $question->date_created)?></div>
    </div>
    <?php
}
?>

<div class="row">
    <div class="col-lg-12">
        <a href="<?=PAGE_ROOT?>question/create/<?=$this->response->id?>/" class="btn btn-success pull-right" style="margin-right: 15px;">Frage Erstellen</a>
    </div>
</div>


<div class="row">
    <div class="col-lg-12">
        <hr style="background: #2b3e50; height: 1px;" />
    </div>
</div>

<div class="row">
    <div class="col-lg-12">
        Modulmanagement:
        <a class="btn btn-info btn-xs" href="<?=PAGE_ROOT?>module/update/<?=$this->response->id?>/">Bearbeiten</a>
        <a class="btn btn-danger btn-xs" href="<?=PAGE_ROOT?>module/delete/<?=$this->response->id?>/">Löschen</a>
    </div>
</div>
